<?xml version="1.0" encoding="UTF-8"?>
<!--
SPDX-FileCopyrightText: 2020 Romain Vigier <contact AT romainvigier.fr>
SPDX-License-Identifier: CC-BY-SA-4.0
-->
<svg width="16px" height="16px" version="1.1" viewBox="0 0 16 16" xmlns="http://www.w3.org/2000/svg">
 <rect x="7" y="2" width="2" height="8" rx="1"/>
 <circle cx="8" cy="13" r="1"/>
</svg>
